{
    "options" : [
        {
            "id" : "1",
            "title" : "Games",
            "events" : [
                {
                    "eId" : "1",
                    "eName" : "Game Event1",
                    "eDate" : "04.17.2014",
                    "eLocation" : "Location",
                    "eOwner" : "Owner of the event"
                },
                {
                    "eId" : "2",
                    "eName" : "Game Event2",
                    "eDate" : "04.17.2014",
                    "eLocation" : "Location",
                    "eOwner" : "Owner of the event"
                },
                {
                    "eId" : "3",
                    "eName" : "Game Event3",
                    "eDate" : "04.17.2014",
                    "eLocation" : "Location",
                    "eOwner" : "Owner of the event"
                }
            ]
        },
        {
            "id" : "2",
            "title" : "Music",
            "events" : [
                {
                    "eId" : "1",
                    "eName" : "Music Event1",
                    "eDate" : "04.17.2014",
                    "eLocation" : "Location",
                    "eOwner" : "Owner of the event"
                },
                {
                    "eId" : "2",
                    "eName" : "Music Event2",
                    "eDate" : "04.17.2014",
                    "eLocation" : "Location",
                    "eOwner" : "Owner of the event"
                },
                {
                    "eId" : "3",
                    "eName" : "Music Event3",
                    "eDate" : "04.17.2014",
                    "eLocation" : "Location",
                    "eOwner" : "Owner of the event"
                }
            ]
        },
        {
            "id" : "3",
            "title" : "Film",
            "events" : [
                {
                    "eId" : "1",
                    "eName" : "Film Event1",
                    "eDate" : "04.17.2014",
                    "eLocation" : "Location",
                    "eOwner" : "Owner of the event"
                },
                {
                    "eId" : "2",
                    "eName" : "Film Event2",
                    "eDate" : "04.17.2014",
                    "eLocation" : "Location",
                    "eOwner" : "Owner of the event"
                },
                {
                    "eId" : "3",
                    "eName" : "Film Event3",
                    "eDate" : "04.17.2014",
                    "eLocation" : "Location",
                    "eOwner" : "Owner of the event"
                }
            ]
        }
    ],

    "users" : [
        {
            "username" : "user1"
        },
        {
            "username" : "user2"
        },
        {
            "username" : "user3"
        }
    ]
}